{
    "components": [
        {
            "label": "Columns",
            "columns": [
                {
                    "components": [
                        {
                        "label": "Exams.Status",
                        "widget": "choicesjs",
                        "dataSrc": "url",
                        "data": {
                            "url": "CourseExamStatuses",
                            "headers": []
                        },
                        "selectThreshold": 0.3,
                        "validate": {
                            "unique": false,
                            "multiple": false
                        },
                        "template": "<span class='d-block pr-5 text-truncate'>{{ item.alternateName }}</span>",
                        "key": "status",
                        "valueProperty": "alternateName",
                        "selectValues": "value",
                        "type": "select",
                        "input": true,
                        "searchEnabled": false
                        }
                    ],
                    "width": 6,
                    "offset": 0,
                    "push": 0,
                    "pull": 0
                },
                {
                    "components": [
                        {
                            "label": "Exams.Year",
                            "widget": "choicesjs",
                            "searchEnabled": false,
                            "searchFields": [
                                "value.id",
                                "value.alternateName"
                            ],
                            "dataSrc": "url",
                            "data": {
                                "url": "AcademicYears?$orderby=id desc",
                                "headers": []
                            },
                            "selectThreshold": 0.3,
                            "template": "<span class='d-block pr-5 text-truncate'>{{ item.alternateName }}</span>",
                            "key": "academicYear",
                            "valueProperty": "alternateName",
                            "selectValues": "value",
                            "type": "select",
                            "input": true,
                            "hideOnChildrenHidden": false,
                            "disableLimit": false,
                            "lazyLoad": false
                        }
                    ],
                    "width": 6,
                    "offset": 0,
                    "push": 0,
                    "pull": 0
                }
            ],
            "tableView": false,
            "key": "department",
            "type": "columns",
            "input": false,
            "path": "columns"
        },
        {
            "label": "Columns",
            "columns": [
                {
                    "components": [
                        {
                            "label": "Exams.MinNumberOfGradedStudents",
                            "labelPosition": "top",
                            "key": "numberOfStudentsGreaterThan",
                            "type": "textfield",
                            "input": true,
                            "valueProperty": "name",
                            "widget": "choicesjs"
                        }
                    ],
                    "width": 3,
                    "offset": 0,
                    "push": 0,
                    "pull": 0
                },
                {
                    "components": [
                        {
                            "label": "Exams.MaxNumberOfGradedStudents",
                            "labelPosition": "top",
                            "key": "numberOfStudentsLowerThan",
                            "type": "textfield",
                            "input": true,
                            "valueProperty": "name",
                            "widget": "choicesjs"
                        }
                    ],
                    "width": 3,
                    "offset": 0,
                    "push": 0,
                    "pull": 0
                },
                {
                    "components": [
                        {
                            "label": "Exams.Period",
                            "labelPosition": "top",
                            "widget": "choicesjs",
                            "dataSrc": "url",
                            "data": {
                                "url": "ExamPeriods",
                                "headers": []
                            },
                            "template": "<span class='d-block pr-5 text-truncate'>{{ item.name }}</span>",
                            "selectValues": "value",
                            "valueProperty": "name",
                            "key": "examPeriod",
                            "type": "select",
                            "input": true,
                            "searchEnabled": false
                        }
                    ],
                    "width": 6,
                    "offset": 0,
                    "push": 0,
                    "pull": 0
                }
            ],
            "tableView": false,
            "key": "columns1",
            "type": "columns",
            "input": false,
            "path": "columns1"
        }
    ]
}