{
  "model": "MediaTypes",
  "settings": {
    "i18n": {
      "el": {
        "Set the name of this item":"Ορίστε την ονομασία του στοιχείου",
        "Set an alternate name for this item. This name will be used to identify items":"Ορίστε μία εναλλακτική ονομασία για αυτό το στοιχείο. Αυτό το όνομα θα χρησιμοποιηθεί για την ταυτοποίηση του στοιχείου",
        "This field must contain only latin characters or numbers e.g. active, closed etc. A value is required.": "Αυτό το πεδίο πρέπει να περιέχει μόνον λατινικούς χαρακτήρες ή αριθμούς πχ. active, closed κτλ. Το πεδίο είναι υποχρεωτικό.",
        "Write a short description for this item": "Γράψτε μία σύντομη περιγραφή για αυτό το στοιχείο",
        "Set the appropriate MIME type for this item.": "Ορίστε τον κατάλληλο τύπο MIME για αυτό το στοιχείο",
        "Set the appropriate extension for this item.": "Ορίστε την κατάλληλη επέκταση αρχείου για αυτό το στοιχείο",
        "This field must contain only latin characters preceded by a period, for example, .pdf, .xlsx etc.": "Αυτό το πεδίο πρέπει να περιέχει μόνον λατινικούς χαρακτήρες οι οποίοι προηγούνται από μια τελεία πχ. .pdf, .xlsx κτλ.",
        "Extension": "Επέκταση αρχείου"
      }
    }
  },
  "components": [
    {
      "type": "fieldset",
      "components": [
        {
          "columns": [
            {
              "components": [
                {
                  "label": "Name",
                  "labelPosition": "top",
                  "widget": {
                    "type": "input"
                  },
                  "validate": {
                    "required": true
                  },
                  "key": "name",
                  "type": "textfield",
                  "input": true,
                  "disabled": false,
                  "description": "Set the name of this item"
                }
              ],
              "width": 6
            },
            {
              "components": [
                {
                  "label": "AlternateName",
                  "labelPosition": "top",
                  "widget": {
                    "type": "input"
                  },
                  "validate": {
                    "required": true,
                    "pattern": "^[a-zA-Z0-9_+-]+$",
                    "customMessage": "This field must contain only latin characters or numbers. A value is required."
                  },
                  "key": "alternateName",
                  "type": "textfield",
                  "input": true,
                  "description": "Set an alternate name for this item. This name will be used to identify items"
                }
              ],
              "width": 6
            },
            {
              "components": [
                {
                  "label": "MIME Type",
                  "labelPosition": "top",
                  "widget": {
                    "type": "input"
                  },
                  "validate": {
                    "required": true
                  },
                  "key": "mimeType",
                  "type": "textfield",
                  "description": "Set the appropriate MIME type for this item.",
                  "input": true
                }
              ],
              "width": 6
            },
            {
              "components": [
                {
                  "label": "Extension",
                  "labelPosition": "top",
                  "widget": {
                    "type": "input"
                  },
                  "validate": {
                    "required": true,
                    "pattern": "^\\.[a-zA-Z]+$"
                  },
                  "errors": {
                    "pattern": "This field must contain only latin characters preceded by a period, for example, .pdf, .xlsx etc."
                  },
                  "key": "extension",
                  "type": "textfield",
                  "description": "Set the appropriate extension for this item.",
                  "input": true
                }
              ],
              "width": 6
            },
            {
              "components": [
                {
                  "label": "Description",
                  "labelPosition": "top",
                  "widget": {
                    "type": "input"
                  },
                  "validate": {
                    "required": false
                  },
                  "key": "description",
                  "type": "textarea",
                  "description": "Write a short description for this item",
                  "input": true
                }
              ],
              "width": 12
            }
          ],
          "customClass": "text-dark",
          "hideLabel": true,
          "type": "columns",
          "input": false
        }
      ]
    },
    {
      "type": "button",
      "label": "Submit",
      "key": "submit",
      "disableOnInvalid": true,
      "input": true
    }
  ]
}
