{
    "components": [
      {
        "label": "Columns",
        "columns": [
          {
            "components": [
              {
                "label": "Students.FamilyName",
                "spellcheck": true,
                "tableView": true,
                "validate": {
                  "unique": false,
                  "multiple": false
                },
                "key": "familyName",
                "type": "textfield",
                "input": true,
                "hideOnChildrenHidden": false
              }
            ],
            "width": 6,
            "offset": 0,
            "push": 0,
            "pull": 0
          },
          {
            "components": [
              {
                "label": "Students.studyProgram",
                "labelPosition": "top",
                "widget": "choicesjs",
                "key": "studyProgram",
                "dataSrc": "url",
                "data": {
                  "url": "StudyPrograms/?$filter=department eq '{{form.department.id}}'",
                  "headers": []
                },
                "template": "{{ item.name }}",
                "selectValues": "value",
                "valueProperty": "id",
                "type": "select",
                "input": true,
                "disabled": false,
                "lazyLoad": false,
                "searchEnabled": true
              }
            ],
            "width": 6,
            "offset": 0,
            "push": 0,
            "pull": 0
          }
        ],
        "tableView": false,
        "key": "department",
        "type": "columns",
        "input": false,
        "path": "columns"
      },
      {
        "label": "Columns",
        "columns": [
          {
            "components": [
              {
                "label": "Students.inscriptionYear",
              "widget": "choicesjs",
              "dataSrc": "url",
              "data": {
                "url": "AcademicYears?$orderby=id desc",
                "headers": []
              },
              "selectThreshold": 0.3,
              "validate": {
                "unique": false,
                "multiple": false
              },
              "template": "<span class='d-block pr-5 text-truncate'>{{ item.name }}</span>",
              "key": "inscriptionYear",
              "valueProperty": "alternateName",
              "selectValues": "value",
              "type": "select",
              "input": true,
              "hideOnChildrenHidden": false,
              "disableLimit": false,
              "lazyLoad": false
              }
            ],
            "width": 3,
            "offset": 0,
            "push": 0,
            "pull": 0
          },
          {
            "components": [
              {
                "label": "Students.inscriptionPeriod",
              "widget": "choicesjs",
              "dataSrc": "url",
              "data": {
                "url": "AcademicPeriods?$orderby=id",
                "headers": []
              },
              "selectThreshold": 0.3,
              "validate": {
              },
              "template": "<span class='d-block pr-5 text-truncate'>{{ item.name }}</span>",
              "key": "inscriptionPeriod",
              "valueProperty": "alternateName",
              "selectValues": "value",
              "type": "select",
              "input": true,
              "hideOnChildrenHidden": false,
              "disableLimit": false,
              "lazyLoad": false
              }
            ],
            "width": 3,
            "offset": 0,
            "push": 0,
            "pull": 0
          },
          {
            "components": [
              {
                "label": "Students.Semester",
                "widget": "choicesjs",
                "dataSrc": "url",
                "data": {
                  "url": "Semesters?$orderby=id",
                  "headers": []
                },
                "selectThreshold": 0.3,
                "validate": {
                },
                "template": "<span class='d-block pr-5 text-truncate'>{{ item.name }}</span>",
                "key": "semester",
                "valueProperty": "id",
                "selectValues": "value",
                "type": "select",
                "input": true,
                "hideOnChildrenHidden": false,
                "disableLimit": false,
                "lazyLoad": false
              }
            ],
            "width": 3,
            "offset": 0,
            "push": 0,
            "pull": 0
          },
          {
            "components": [
              {
                "label": "Exams.AgreeTitle",
                "widget": "choicesjs",
                "data": {
                  "values": [
                    {
                      "label": "Yes",
                      "value": "1"
                    },
                    {
                      "label": "No",
                      "value": "0"
                    }
                  ]
                },
                "dataType": "string",
                "validate": {
                  "unique": false,
                  "multiple": false
                },
                "key": "agree",
                "valueProperty": "value",
                "selectValues": "label",
                "type": "select",
                "input": true,
                "hideOnChildrenHidden": false,
                "disableLimit": false,
                "lazyLoad": false,
                "searchEnabled": false
              }
            ],
            "width": 3,
            "offset": 0,
            "push": 0,
            "pull": 0
          }
        ],
        "tableView": false,
        "key": "columns1",
        "type": "columns",
        "input": false,
        "path": "columns1"
      }
    ]
  }
