{
  "title": "Requests.ActiveStudentRequestActions",
  "model": "PreferredSpecialtyRequestActions",
  "searchExpression": "(indexof(student/person/familyName, '${text}') ge 0 or indexof(student/person/givenName, '${text}') ge 0 or indexof(description, '${text}') ge 0 or indexof(name, '${text}') ge 0 or indexof(student/studentIdentifier, '${text}') ge 0)",
  "selectable": true,
  "multipleSelect": true,
  "columns": [
    {
      "name": "id",
      "property": "id",
      "formatter": "ActionLinkFormatter",
      "actions": [
        {
          "title": "Requests.Preview.Label",
          "href": "#/requests/${id}/"
        }
      ]
    },
    {
      "name": "description",
      "property": "description",
      "title": "Requests.RequestTitleLower",
      "formatter": "TemplateFormatter",
      "formatString": "${description || name}"
    },
    {
      "name": "name",
      "property": "name",
      "hidden": true
    },
    {
      "name": "additionalType",
      "property": "additionalType",
      "hidden": true
    },
    {
      "name": "student/studentIdentifier",
      "property": "studentIdentifier",
      "title": "Requests.StudentIdentifier"
    },
    {
      "name": "student/person/familyName",
      "property": "familyName",
      "title": "Requests.FullName",
      "formatter": "TemplateFormatter",
      "formatString": "${familyName} ${givenName}"
    },
    {
      "name": "student/person/givenName",
      "property": "givenName",
      "title": "Requests.GivenName",
      "hidden": true
    },
    {
      "name": "student/studentStatus/alternateName",
      "property": "studentStatus",
      "title": "Requests.StudentStatus",
      "formatter": "TranslationFormatter",
      "formatString": "StudentStatuses.${value}"
    },
    {
      "name": "academicYear/alternateName",
      "property": "academicYear",
      "title": "Labels.AcademicYear"
    },
    {
      "name": "academicPeriod/alternateName",
      "property": "academicPeriod",
      "title": "Labels.AcademicPeriod",
      "formatter": "TranslationFormatter",
      "formatString": "Periods.${value}"
    },
    {
      "name": "currentSpecialty/studyProgram/name",
      "property": "studyProgram",
      "title": "Students.studyProgram"
    },
    {
      "name": "currentSpecialty/name",
      "property": "currentSpecialtyName",
      "title": "Requests.CurrentSpecialty"
    },
    {
      "name": "specialty/name",
      "property": "specialtyName",
      "title": "Requests.TargetSpecialty"
    },
    {
      "name": "startTime",
      "property": "startTime",
      "title": "Requests.StartTime",
      "formatter": "DateTimeFormatter",
      "formatString": "shortDate"
    },
    {
      "name": "actionStatus/alternateName",
      "property": "actionStatus",
      "title": "Requests.ActionStatusTitle",
      "formatters": [
        {
          "formatter": "TranslationFormatter",
          "formatString": "ActionStatusTypes.${value}"
        },
        {
          "formatter": "NgClassFormatter",
          "formatOptions": {
            "ngClass": {
              "text-danger": "'${actionStatus}'==='CancelledActionStatus' || '${actionStatus}'==='FailedActionStatus'",
              "text-primary": "'${actionStatus}'==='ActiveActionStatus' || '${actionStatus}'==='PotentialActionStatus'",
              "text-success": "'${actionStatus}'==='CompletedActionStatus'"
            }
          }
        }
      ]
    },
    {
      "name": "canSelectSpecialty",
      "property": "canSelectSpecialty",
      "title": "Requests.CanSelectSpecialty",
      "formatters": [
        {
          "formatter": "TranslationFormatter",
          "formatString": "${value != null ? (value ? 'Yes' : 'No') : '-'}"
        },

        {
          "formatter": "NgClassFormatter",
          "formatOptions": {
            "ngClass": {
              "text-secondary": "${canSelectSpecialty == null}",
              "text-success": "${!!canSelectSpecialty}",
              "text-danger": "${!canSelectSpecialty}"
            }
          }
        }
      ]
    },
    {
      "name": "agent/name",
      "property": "agentName",
      "title": "Requests.AgentName"
    },
    {
      "name": "agent",
      "property": "agent",
      "hidden": true
    }
  ],
  "defaults": {
    "filter": "(student/department eq ${currentDepartment})",
    "orderBy": "dateCreated desc"
  },
  "criteria": [
    {
      "name": "studentName",
      "filter": "(indexof(student/person/familyName, '${value}') ge 0 or indexof(student/person/givenName, '${value}') ge 0)",
      "type": "text"
    },
    {
      "name": "studentStatus",
      "filter": "(student/studentStatus/alternateName eq '${value}')",
      "type": "text"
    },
    {
      "name": "actionStatus",
      "filter": "(actionStatus/alternateName eq '${value}')",
      "type": "text"
    },
    {
      "name": "studentIdentifier",
      "filter": "(indexof(student/studentIdentifier, '${value}') ge 0)",
      "type": "text"
    },
    {
      "name": "startTime",
      "filter": "(startTime eq '${value}')",
      "type": "text"
    },
    {
      "name": "minDate",
      "filter": "(dateCreated ge '${new Date(value).toISOString()}')"
    },
    {
      "name": "maxDate",
      "filter": "(dateCreated le '${new Date(value).toISOString()}')"
    },
    {
      "name": "academicYear",
      "filter": "(academicYear eq '${value}')"
    },
    {
      "name": "academicPeriod",
      "filter": "(academicPeriod/alternateName eq '${value}')"
    },
    {
      "name": "agentName",
      "filter": "(indexof(agent/name, '${value}') ge 0)"
    },
    {
      "name": "studyProgram",
      "filter": "(specialty/studyProgram/id eq '${value && value.studyProgram}')"
    },
    {
      "name": "studyProgramSpecialty",
      "filter": "(specialty eq '${value && value.id}')"
    },
    {
      "name": "canSelectSpecialty",
      "filter": "${value >=1 ? '(canSelectSpecialty eq true)': '(canSelectSpecialty eq false)'}"
    }
  ]
}
