{
  "model": "StudentCourseClasses",
  "title": "class students",
  "searchExpression": "indexof(student/studentIdentifier, '${text}') ge 0 or indexof(student/person/familyName, '${text}') ge 0 or indexof(student/person/givenName, '${text}') ge 0 or indexof(student/studyProgram/name, '${text}') ge 0 or indexof(student/studentStatus/name, '${text}') ge 0",
  "selectable": true,
  "multipleSelect": true,
  "columns": [
    {
      "name": "id",
      "title": "Settings.Attributes.id",
      "property": "id",
      "hidden": "true"
    },
    {
      "name": "courseClass/course/id",
      "property": "courseId",
      "title": "Classes.ClassId",
      "hidden": true
    },
    {
      "name": "student/studentIdentifier",
      "property": "studentIdentifier",
      "title": "Students.studentIdentifier"
    },
    {
      "name": "student/uniqueIdentifier",
      "property": "uniqueIdentifier",
      "title": "Students.uniqueIdentifier",
      "hidden": true,
      "optional": true
    },
    {
      "name": "student/person/familyName",
      "property": "familyName",
      "title": "StudentColumns.personFamilyName",
      "hidden": true
    },
    {
      "name": "student/user/name",
      "property": "username",
      "title": "Students.UserName",
      "hidden": true,
      "optional": true
    },
    {
      "name": "student/person/givenName",
      "property": "givenName",
      "title": "StudentColumns.personGivenName",
      "hidden": true
    },
    {
      "name": "student/person/familyName",
      "property": "fullName",
      "title": "Students.fullName",
      "formatter": "TemplateFormatter",
      "formatString": "${familyName} ${givenName}"
    },
    {
      "name": "student/person/email",
      "property": "email",
      "title": "Students.Email",
      "hidden": true
    },
    {
      "name": "student/studentStatus/alternateName",
      "property": "studentStatus",
      "title": "Students.Status",
      "formatter": "TranslationFormatter",
      "formatString": "StudentStatuses.${value}"
    },
    {
      "name": "student/inscriptionYear/name",
      "property": "inscriptionYear",
      "title": "Students.inscriptionYear"
    },
    {
      "name": "student/inscriptionPeriod/alternateName",
      "property": "inscriptionPeriod",
      "title": "Students.inscriptionPeriod",
      "formatter": "TranslationFormatter",
      "formatString": "Periods.${value}"
    },
    {
      "name": "student/studyProgram/abbreviation",
      "property": "studyProgram",
      "title": "Students.studyProgram"
    },
    {
      "name": "registration/semester",
      "property": "registrationSemester",
      "title": "Students.semester"
    },
    {
      "name": "sectionName",
      "property": "sectionName",
      "title": "Classes.ClassSection"
    },
    {
      "name": "student/department/id",
      "property": "studentDepartment",
      "title": "Students.DepartmentId",
      "hidden": true
    },
    {
      "name": "courseClass/course/department",
      "property": "courseDepartment",
      "title": "Classes.CourseDepartment",
      "hidden": true
    },
    {
      "name": "student/department/abbreviation",
      "property": "studentDepartmentAbbreviation",
      "title": "Students.Department"
    },
    {
      "name": "isPassed",
      "property": "isPassed",
      "title": "Students.Passed",
      "hidden": true
    },
    {
      "name": "registrationType",
      "property": "registrationType",
      "title": "Classes.RegistrationType",
      "formatter": "TranslationFormatter",
      "formatString": "${value === 1 ? 'Yes' : 'No'}"
    },
    {
      "name": "autoRegistered/alternateName",
      "property": "autoRegistered",
      "title": "Classes.AutoRegistered",
      "formatter": "TranslationFormatter",
      "formatString": "AutoRegisterStatusTypes.${value}"
    },
    {
      "name": "absences",
      "property": "absences",
      "title": "Classes.Absences"
    },
    {
      "name": "status/name",
      "property": "status",
      "title": "Classes.StudentClassStatus"
    },
    {
      "name": "formattedGrade",
      "property": "formattedGrade",
      "title": "Exams.Grade",
      "formatter": "NgClassFormatter",
      "formatOptions": {
        "ngClass": {
          "text-success": "${isPassed}===1  && ${formattedGrade != null}",
          "text-danger": "${isPassed}===0 && ${formattedGrade != null}"
        }
      }
    },
    {
      "name": "student/id",
      "placeholder": "Students.View",
      "property": "studentId",
      "formatters": [
        {
          "formatter": "ButtonFormatter",
          "formatOptions": {
            "buttonContent": "<i class=\"far fa-eye text-indigo\"></i>",
            "buttonClass": "btn btn-default"
          },
          "formatString": "#/students/${studentId}/dashboard/overview"
        },
        {
          "formatter": "NgClassFormatter",
          "formatOptions": {
            "ngClass": {
              "text-center": "${studentDepartment === courseDepartment}",
              "d-none": "${studentDepartment !== courseDepartment}"
            }
          }
        }
      ]
    },
    {
      "name": "section",
      "property": "section",
      "title": "Classes.ClassSectionId",
      "hidden": true
    },
    {
      "name": "examGrade",
      "title": "Classes.ExamGrade",
      "property": "examGrade",
      "hidden": true
    }
  ],
  "criteria": [
    {
      "name": "studyProgram",
      "filter": "(student/studyProgram/id eq '${value && value.studyProgram}')",
      "type": "text"
    },
    {
    "name": "studentName",
      "filter": "(indexof(student/person/familyName, '${value}') ge 0 or indexof(student/studentIdentifier, '${value}') ge 0)",
      "type": "text"
    },
    {
      "name": "studentStatus",
      "filter": "(student/studentStatus/alternateName eq '${value}')",
      "type": "text"
    },
    {
      "name": "inscriptionYear",
      "filter": "(student/inscriptionYear/id eq '${value}')",
      "type": "text"
    },
    {
      "name": "inscriptionPeriod",
      "filter": "(student/inscriptionPeriod/alternateName eq '${value}')",
      "type": "text"
    },
    {
      "name": "semester",
      "filter": "(registration/semester eq '${value}')",
      "type": "text"
    },
    {
      "name": "courseClassID",
      "filter": "(courseClass eq '${value}')",
      "type": "text"
    }
  ,
    {
      "name": "section",
      "filter": "(section eq '${value}')",
      "type": "text"
    },
    {
      "name": "studentDepartment",
      "filter": "(student/department/id eq '${value}')",
      "type": "text"
    },
    {
      "name": "registrationType",
      "filter": "(registrationType/id eq '${value}')",
      "type": "text"
    },
    {
      "name": "status",
      "filter": "(status/id eq '${value}')",
      "type": "text"
    },
    {
      "name": "withExamGrade",
      "filter": "${value >= 1 ? '(examGrade ne null)' : '(examGrade eq null)'}",
      "type": "text"
    },
    {
      "name": "studyProgramSpecialty",
      "filter": "(student/studyProgramSpecialty/id eq '${value && value.id}')",
      "type": "text"
    },
    {
      "name": "offStudyProgramSemesters",
      "filter": "${value >= 1 ? '(student/semester gt $it/student/studyProgram/semesters)' : '(student/semester le $it/student/studyProgram/semesters)'}",
      "type": "text"
    }
  ]
}
