{
  "model": "UpdateProgramGroupActions",
  "settings": {
    "i18n": {
      "el": {
        "Select supergroup": "Επιλογή υπερομάδας",
        "Add program group": "Προσθήκη ομάδας προγράμματος σπουδών",
        "Select the supergroup in order to see the available groups": "Επιλέξτε την υπερομάδα για να δείτε τις διαθέσιμες ομάδες",
        "Select the study program group to add it to student": "Επιλέξτε την ομάδα του προγράμματος σπουδών η οποία θα προστεθεί στον φοιτητή"
      }
    }
  },
  "components": [
    {
      "type": "fieldset",
      "key": "fieldSet",
      "input": false,
      "components": [
        {
          "columns": [
            {
              "components": [
                {
                  "label": "Select supergroup",
                  "labelPosition": "top",
                  "description": "Select the supergroup in order to see the available groups",
                  "key": "selectedGroup",
                  "widget": "choicesjs",
                  "dataSrc": "url",
                  "type": "select",
                  "refreshOn": "studyProgram",
                  "lazyLoad": true,
                  "clearOnRefresh": true,
                  "dataType": "object",
                  "idPath": "id",
                  "template": "<span class='d-block pr-5 text-truncate'>{{ item.name }}</span>",
                  "data": {
                    "url": "/Students/{{data.studentId}}/availableProgramGroups"
                  },
                  "selectThreshold": 0.3,
                  "input": true
                }
              ]
            },
            {
              "components": [
                {
                  "label": "Add program group",
                  "labelPosition": "top",
                  "description": "Select the study program group to add it to student",
                  "widget": "choicesjs",
                  "tableView": true,
                  "lazyLoad": true,
                  "dataSrc": "custom",
                  "data": {
                    "custom": "values = data['selectedGroup']['groups']"
                  },
                  "validate": {
                    "required": true
                  },
                  "template": "<span class='d-block pr-5 text-truncate'>{{ item.name }}</span>",
                  "selectThreshold": 0.3,
                  "customConditional": "show = data && data['selectedGroup'] && Object.keys(data['selectedGroup']).length > 0;",
                  "key": "group",
                  "type": "select",
                  "hidden": true,
                  "input": true
                }
              ],
              "width": 8
            }
          ],
          "customClass": "text-dark",
          "hideLabel": true,
          "type": "columns",
          "input": false
        }
      ]
    }
  ]
}
