{
    "model": "Places",
    "searchExpression": "(indexof(name, '${text}') ge 0 or indexof(displayCode, '${text}') ge 0 or indexof(description, '${text}') ge 0 or indexof(containedInPlace/name, '${text}') ge 0)",
    "columns": [
        {
            "name": "name",
            "title": "Settings.Attributes.name",
            "hidden": false
        },
        {
            "name": "displayCode",
            "title": "Settings.Lists.Places.DisplayCode",
            "hidden": false
        },
        {
            "name": "description",
            "title": "Settings.Attributes.description",
            "hidden": false
        },
        {
            "name": "maximumAttendeeCapacity",
            "title": "Settings.Lists.Places.Capacity",
            "hidden": false
        },
        {
            "name": "containedInPlace/name",
            "property": "parentPlace",
            "title": "Settings.Lists.Places.ParentPlace",
            "hidden": false
        },
        {
            "name": "id",
            "formatter": "ButtonFormatter",
            "formatString":"(modal:edit)",
            "className": "text-center",
            "formatOptions": {
                "buttonContent": "<i class=\"far fa-edit text-indigo\"></i>",
                "buttonClass": "btn btn-default"
            }
        }
    ],
    "criteria": [
        {
            "name": "name",
            "filter": "(indexof(name, '${value}') ge 0)",
            "type": "text"
        },
        {
            "name": "displayCode",
            "filter": "(indexof(displayCode, '${value}') ge 0)",
            "type": "text"
        },
        {
            "name": "description",
            "filter": "(indexof(description, '${value}') ge 0)",
            "type": "text"
        },
        {
            "name": "capacity",
            "filter": "(maximumAttendeeCapacity eq '${value}')",
            "type": "text"
        },
        {
            "name": "parentPlace",
            "filter": "(indexof(containedInPlace/name, '${value}') ge 0)",
            "type": "text"
        }
    ],
    "defaults": {
        "orderBy": "displayCode"
    }
}
